Results of SQL at  Time.now: 2019-11-22 21:58:23 -0800
    CREATE OR REPLACE VIEW public.connections AS
    SELECT resto.person_id AS "Person ID", -- could as easily be resid.person_id since it's the same 
    RTRIM(p.given_name) || ' ' || RTRIM(p.last_name) AS "Name",
    resto.year_date AS "Resto Date", 
    resid.year_date AS "Resid Date", 
    resto.resto_name AS "Resto Name",
    resto_loc.address AS "Resto Address",
    resto.title AS "Title Resto",
    resid_loc.address AS "Resid Address", 
    resid.title AS "Title Resid", 
    resto_loc.longitude AS "Resto Longitude",
    resto_loc.latitude AS  "Resto Latitude",
    resid_loc.longitude AS "Resid Longitude",
    resid_loc.latitude AS  "Resid Latitude",
    RTRIM(resto.notes) AS "Resto Notes",
    RTRIM(resid.notes) AS "Resid Notes",
    p.date_of_birth AS "Date of Birth",
    resto.id AS years_resto_id,
    resid.id AS years_resid_id,
    resto.location_id as resto_loc_id,
    resid.location_id as resid_loc_id
    From years resto JOIN years resid  ON  resto.year_date between (resid.year_date-364) and (resid.year_date+364)
    JOIN people p ON resto.person_id = p.id
    JOIN locations resto_loc ON resto.location_id = resto_loc.id
    JOIN locations resid_loc ON resid.location_id = resid_loc.id
    WHERE -- This makes little sense to me why the following works. Note some restrictions set above
        resto.person_id = resid.person_id and
        resto.resto = true           and
        resto.resto != resid.resto   and
        resto.resid != resid.resid   and
        resto.resto = true           and
        resid.resto = false          
    Order by resto.year_date, p.last_name, p.given_name
