example_id                                                     | status  | run_time        |
-------------------------------------------------------------- | ------- | --------------- |
./spec/coffee_spec.rb[1:1]                                     | passed  | 0.00293 seconds |
./spec/coffee_spec.rb[1:2:1]                                   | failed  | 0.03175 seconds |
./spec/jobs/copy_carrierwave_to_activestorage_job_spec.rb[1:1] | pending | 0.00001 seconds |
./spec/models/person_spec.rb[1:1]                              | pending | 0 seconds       |
